Binding Apache Arrow to R
…
Let’s start with the C++ library. The role of libarrow is to do all the heavy lifting. It implements all the Arrow standards for representing tabular data in memory, provides support for the Apache “Inter-Process Communication” (IPC) protocol that lets you efficiently transfer data from one application to another, and supplies a compute kernel that allows you to do some data wrangling when your data are represented as an Arrow table. It is, fundamentally, the engine that makes everything work.

What about the R package? The role of arrow is to expose the functionality of libarrow to the R user, to make that functionality feel “natural” in R, and to make it easier for R users to write Arrow code that is smoothly interoperable with Arrow code written in other languages (e.g., Python).

library(tibble)
library(dplyr)
library(lubridate)
library(arrow)

# import the economics data from ggplot2
data(economics, package = "ggplot2")
economics

# A tibble: 574 × 6
   date         pce    pop psavert uempmed unemploy
   <date>     <dbl>  <dbl>   <dbl>   <dbl>    <dbl>
 1 1967-07-01  507. 198712    12.6     4.5     2944
 2 1967-08-01  510. 198911    12.6     4.7     2945
 3 1967-09-01  516. 199113    11.9     4.6     2958
 4 1967-10-01  512. 199311    12.9     4.9     3143
 5 1967-11-01  517. 199498    12.8     4.7     3066
 6 1967-12-01  525. 199657    11.8     4.8     3018
 7 1968-01-01  531. 199808    11.7     5.1     2878
 8 1968-02-01  534. 199920    12.3     4.5     3001
 9 1968-03-01  544. 200056    11.7     4.1     2877
10 1968-04-01  544  200208    12.3     4.6     2709
# … with 564 more rows
…
See $metadata for additional Schema metadata

Using the dplyr bindings in arrow

The arrow package provides you with multiple ways to take advantage of libarrow. My favourite way to do this is by writing dplyr code.

economics %>% 
  mutate(year = year(date)) %>% 
  group_by(year) %>% 
  summarise(uempmed = mean(uempmed))

# A tibble: 49 × 2
    year uempmed
   <dbl>   <dbl>
 1  1967    4.7 
 2  1968    4.5 
 3  1969    4.44
 4  1970    4.98
 5  1971    6.28
 6  1972    6.11
 7  1973    5.18
 8  1974    5.18
 9  1975    8.47
10  1976    8.14
# … with 39 more rows

Seamless integration:

arrownomics %>% 
  mutate(year = year(date)) %>% 
  group_by(year) %>% 
  summarise(uempmed = mean(uempmed)) %>% 
  collect()

# A tibble: 49 × 2
    year uempmed
   <int>   <dbl>
 1  1967    4.7 
 2  1968    4.5 
 3  1969    4.44
 4  1970    4.98
 5  1971    6.28
 6  1972    6.11
 7  1973    5.18
 8  1974    5.18
 9  1975    8.47
10  1976    8.14
# … with 39 more rows
…
I’ve truncated the output in this post. The real output continues for quite a while: there are currently 221 libarrow compute functions that arrow exposes to the R user, most of which low level functions that the R package relies upon.

There are two different ways that an R user can call the libarrow compute functions. First, imagine you’re writing dplyr code to work with datetime data in a Table object. When working with native R objects, you can do this:

economics %>% 
  mutate(days = date - as.Date("1967-01-01"))

# A tibble: 574 × 7
   date         pce    pop psavert uempmed unemploy days    
   <date>     <dbl>  <dbl>   <dbl>   <dbl>    <dbl> <drtn>  
 1 1967-07-01  507. 198712    12.6     4.5     2944 181 days
 2 1967-08-01  510. 198911    12.6     4.7     2945 212 days
 3 1967-09-01  516. 199113    11.9     4.6     2958 243 days
 4 1967-10-01  512. 199311    12.9     4.9     3143 273 days
 5 1967-11-01  517. 199498    12.8     4.7     3066 304 days
 6 1967-12-01  525. 199657    11.8     4.8     3018 334 days
 7 1968-01-01  531. 199808    11.7     5.1     2878 365 days
 8 1968-02-01  534. 199920    12.3     4.5     3001 396 days
 9 1968-03-01  544. 200056    11.7     4.1     2877 425 days
10 1968-04-01  544  200208    12.3     4.6     2709 456 days
# … with 564 more rows
Unfortunately, this won’t work in arrow right now. I chose this example deliberately because temporal arithmetic is a work in progress right now. In the not-too-distant future this will work seamlessly, but right now it doesn’t. If you try it right now, you get this error:

arrownomics %>% 
  mutate(days = date - as.Date("1967-01-01")) %>% 
  collect()

Error: NotImplemented: Function subtract_checked has no kernel matching input types (array[date32[day]], scalar[date32[day]])

This is very sad, but as it happens libarrow does have a days_between() function:

arrownomics %>% 
  mutate(days = arrow_days_between(as.Date("1967-01-01"), date)) %>% 
  collect()

# A tibble: 574 × 7
   date         pce    pop psavert uempmed unemploy  days
 * <date>     <dbl>  <dbl>   <dbl>   <dbl>    <dbl> <int>
 1 1967-07-01  507. 198712    12.6     4.5     2944   181
 2 1967-08-01  510. 198911    12.6     4.7     2945   212
 3 1967-09-01  516. 199113    11.9     4.6     2958   243
 4 1967-10-01  512. 199311    12.9     4.9     3143   273
 5 1967-11-01  517. 199498    12.8     4.7     3066   304
 6 1967-12-01  525. 199657    11.8     4.8     3018   334
 7 1968-01-01  531. 199808    11.7     5.1     2878   365
 8 1968-02-01  534. 199920    12.3     4.5     3001   396
 9 1968-03-01  544. 200056    11.7     4.1     2877   425
10 1968-04-01  544  200208    12.3     4.6     2709   456
# … with 564 more rows
…
arrowish_leap_year <- function(date) {
   year <- Expression$create("year", date)
  (year %% 4 == 0) & ((year %% 100 != 0) | (year %% 400 == 0))
}

Trying to use lubridate fails:

arrownomics %>% 
  mutate(leap = leap_year(date)) %>% 
  collect()

Warning: Expression leap_year(date) not supported in Arrow; pulling
data into R

# A tibble: 574 × 7
   date         pce    pop psavert uempmed unemploy leap 
 * <date>     <dbl>  <dbl>   <dbl>   <dbl>    <dbl> <lgl>
 1 1967-07-01  507. 198712    12.6     4.5     2944 FALSE
 2 1967-08-01  510. 198911    12.6     4.7     2945 FALSE
 3 1967-09-01  516. 199113    11.9     4.6     2958 FALSE
 4 1967-10-01  512. 199311    12.9     4.9     3143 FALSE
 5 1967-11-01  517. 199498    12.8     4.7     3066 FALSE
 6 1967-12-01  525. 199657    11.8     4.8     3018 FALSE
 7 1968-01-01  531. 199808    11.7     5.1     2878 TRUE 
 8 1968-02-01  534. 199920    12.3     4.5     3001 TRUE 
 9 1968-03-01  544. 200056    11.7     4.1     2877 TRUE 
10 1968-04-01  544  200208    12.3     4.6     2709 TRUE 
# … with 564 more rows

Using our function works:

arrownomics %>% 
  mutate(leap = arrowish_leap_year(date)) %>% 
  collect()

# A tibble: 574 × 7
   date         pce    pop psavert uempmed unemploy leap 
 * <date>     <dbl>  <dbl>   <dbl>   <dbl>    <dbl> <lgl>
 1 1967-07-01  507. 198712    12.6     4.5     2944 FALSE
 2 1967-08-01  510. 198911    12.6     4.7     2945 FALSE
 3 1967-09-01  516. 199113    11.9     4.6     2958 FALSE
 4 1967-10-01  512. 199311    12.9     4.9     3143 FALSE
 5 1967-11-01  517. 199498    12.8     4.7     3066 FALSE
 6 1967-12-01  525. 199657    11.8     4.8     3018 FALSE
 7 1968-01-01  531. 199808    11.7     5.1     2878 TRUE 
 8 1968-02-01  534. 199920    12.3     4.5     3001 TRUE 
 9 1968-03-01  544. 200056    11.7     4.1     2877 TRUE 
10 1968-04-01  544  200208    12.3     4.6     2709 TRUE 
# … with 564 more rows
…
