Using with Amazon S3 with R
…
save_object(
  object = "dwca-nsw_avh-v1.0.zip",
  bucket = "s3://herbariumnsw-pds/", 
  region = "ap-southeast-2",
  file = "herbarium/dwca-nsw_avh-v1.0.zip"
) 

[1] "herbarium/dwca-nsw_avh-v1.0.zip"

So now we have the data. After extracting from the zip file, we end up with a 421MB text file called occurrence.txt that turns out to be a tab separated value file:

herbarium <- read_tsv("herbarium/dwca-nsw_avh-v1.0/occurrence.txt")
herbarium

# A tibble: 725,507 × 74
   id         type  modified            institutionCode collectionCode
   <chr>      <chr> <dttm>              <chr>           <chr>         
 1 NSW:NSW:N… Phys… 2013-11-28 11:56:00 NSW             NSW           
 2 NSW:NSW:N… Phys… 2012-08-09 15:47:00 NSW             NSW           
 3 NSW:NSW:N… Phys… 2015-03-13 15:51:00 NSW             NSW           
 4 NSW:NSW:N… Phys… 2018-07-24 10:06:00 NSW             NSW           
 5 NSW:NSW:N… Phys… 2015-03-13 15:51:00 NSW             NSW           
 6 NSW:NSW:N… Phys… 2013-07-24 15:16:00 NSW             NSW           
 7 NSW:NSW:N… Phys… 2015-03-13 15:51:00 NSW             NSW           
 8 NSW:NSW:N… Phys… 2010-12-01 14:25:00 NSW             NSW           
 9 NSW:NSW:N… Phys… 2018-01-24 16:49:00 NSW             NSW           
10 NSW:NSW:N… Phys… 2018-07-24 10:05:00 NSW             NSW           
# … with 725,497 more rows, and 69 more variables:
#   basisOfRecord <chr>, occurrenceID <chr>, catalogNumber <chr>,
#   occurrenceRemarks <chr>, recordNumber <chr>, recordedBy <chr>,
#   lifeStage <lgl>, reproductiveCondition <chr>,
#   establishmentMeans <chr>, occurrenceStatus <chr>,
#   preparations <chr>, associatedSequences <lgl>,
#   associatedTaxa <lgl>, previousIdentifications <lgl>, …
…
Okay, within NSW what are the unique regions

herbarium %>% 
  filter(country == "Australia", stateProvince == "New South Wales") %>% 
  count(locality) %>% 
  arrange(desc(n))

# A tibble: 174,850 × 2
   locality                         n
   <chr>                        <int>
 1 <NA>                          3486
 2 Broken Hill.                   852
 3 Lismore.                       812
 4 Warialda.                      733
 5 Port Macquarie.                693
 6 Ballina.                       678
 7 Wentworth Falls.               667
 8 Blackheath.                    664
 9 [No precise locality given].   630
10 Nyngan.                        630
# … with 174,840 more rows
…
