Title in sentence case
…
Packages I’m going to use a lot get attached:

library(dplyr)
library(stringr)
library(ggplot2)

Import the data

So I can read the data with the following code1

billboard <- readr::read_csv(params$data)
billboard

# A tibble: 327,895 × 10
   url      week_id  week_position song   performer song_id   instance
   <chr>    <chr>            <dbl> <chr>  <chr>     <chr>        <dbl>
 1 http://… 7/17/19…            34 Don't… Patty Du… Don't Ju…        1
 2 http://… 7/24/19…            22 Don't… Patty Du… Don't Ju…        1
 3 http://… 7/31/19…            14 Don't… Patty Du… Don't Ju…        1
 4 http://… 8/7/1965            10 Don't… Patty Du… Don't Ju…        1
 5 http://… 8/14/19…             8 Don't… Patty Du… Don't Ju…        1
 6 http://… 8/21/19…             8 Don't… Patty Du… Don't Ju…        1
 7 http://… 8/28/19…            14 Don't… Patty Du… Don't Ju…        1
 8 http://… 9/4/1965            36 Don't… Patty Du… Don't Ju…        1
 9 http://… 4/19/19…            97 Don't… Teddy Pe… Don't Ke…        1
10 http://… 4/26/19…            90 Don't… Teddy Pe… Don't Ke…        1
# … with 327,885 more rows, and 3 more variables:
#   previous_week_position <dbl>, peak_position <dbl>,
#   weeks_on_chart <dbl>
…
