Learning Apache Arrow (for R users)
…
Arrow (and the related Parquet file format) uses columnar format. Unlike a CSV file, which stores the data row-wise, it represents the data column-wise: this turns out to be a much more efficient way to represent data when you need to subset the data (e.g., by using dplyr::filter() in R or the WHERE clause in SQL).

Arrow supports zero-copy reads without serialisation overhead, which… um…

Explain serialisation please

Oh right, yeah. Serialisation is one of those terms that those fancy data people know all about, but a regular R user might not be quite as familiar with. It’s worth unpacking this a bit because it’s helpful for understanding the problem that Arrow solves.

Okay, here’s a data frame shown the way we typically think about it from the R user perspective:

art <- readr::read_csv("https://djnavarro.net/series-water-colours/manifest.csv")
art

# A tibble: 200 × 9
   path    resolution series sys_id img_id short_name format long_name
   <chr>        <dbl> <chr>  <chr>  <chr>  <chr>      <chr>  <chr>    
 1 1000/w…       1000 water… sys02  img34  teacup-oc… jpg    Ocean in…
 2 1000/w…       1000 water… sys02  img34  teacup-oc… png    Ocean in…
 3 2000/w…       2000 water… sys02  img34  teacup-oc… jpg    Ocean in…
 4 2000/w…       2000 water… sys02  img34  teacup-oc… png    Ocean in…
 5 4000/w…       4000 water… sys02  img34  teacup-oc… jpg    Ocean in…
 6 4000/w…       4000 water… sys02  img34  teacup-oc… png    Ocean in…
 7 500/wa…        500 water… sys02  img34  teacup-oc… jpg    Ocean in…
 8 500/wa…        500 water… sys02  img34  teacup-oc… png    Ocean in…
 9 8000/w…       8000 water… sys02  img34  teacup-oc… jpg    Ocean in…
10 8000/w…       8000 water… sys02  img34  teacup-oc… png    Ocean in…
# … with 190 more rows, and 1 more variable: date <date>
…
Here’s the first 100 bytes:

bytes[1:100]

  [1] 58 0a 00 00 00 03 00 04 01 01 00 03 05 00 00 00 00 05 55 54 46
 [22] 2d 38 00 00 03 13 00 00 00 09 00 00 00 10 00 00 00 c8 00 04 00
 [43] 09 00 00 00 2d 31 30 30 30 2f 77 61 74 65 72 63 6f 6c 6f 75 72
 [64] 5f 73 79 73 30 32 5f 69 6d 67 33 34 5f 74 65 61 63 75 70 2d 6f
 [85] 63 65 61 6e 2e 6a 70 67 00 04 00 09 00 00 00 2d

Similarly, there’s an unserialize() function that will take the raw vector as input and reconstruct the tibble for you:

unserialize(bytes)

# A tibble: 200 × 9
   path    resolution series sys_id img_id short_name format long_name
   <chr>        <dbl> <chr>  <chr>  <chr>  <chr>      <chr>  <chr>    
 1 1000/w…       1000 water… sys02  img34  teacup-oc… jpg    Ocean in…
 2 1000/w…       1000 water… sys02  img34  teacup-oc… png    Ocean in…
 3 2000/w…       2000 water… sys02  img34  teacup-oc… jpg    Ocean in…
 4 2000/w…       2000 water… sys02  img34  teacup-oc… png    Ocean in…
 5 4000/w…       4000 water… sys02  img34  teacup-oc… jpg    Ocean in…
 6 4000/w…       4000 water… sys02  img34  teacup-oc… png    Ocean in…
 7 500/wa…        500 water… sys02  img34  teacup-oc… jpg    Ocean in…
 8 500/wa…        500 water… sys02  img34  teacup-oc… png    Ocean in…
 9 8000/w…       8000 water… sys02  img34  teacup-oc… jpg    Ocean in…
10 8000/w…       8000 water… sys02  img34  teacup-oc… png    Ocean in…
# … with 190 more rows, and 1 more variable: date <date>
…
