Data types in Arrow and R
…
2022-01-27

Manuals for translating one language into another can be set up in divergent ways, all compatible with the totality of speech dispositions, yet incompatible with one another 
     – William Van Orman Quine, 1960, Word and Object

Consider this piece of magic

library(tibble)
library(dplyr)
library(arrow)

magicians <- read_csv_arrow("magicians.csv")
magicians

# A tibble: 65 × 6
   season episode title                      air_date   rating viewers
    <int>   <int> <chr>                      <date>      <dbl>   <dbl>
 1      1       1 Unauthorized Magic         2015-12-16    0.2    0.92
 2      1       2 The Source of Magic        2016-01-25    0.4    1.11
 3      1       3 Consequences of Advanced … 2016-02-01    0.4    0.9 
 4      1       4 The World in the Walls     2016-02-08    0.3    0.75
 5      1       5 Mendings, Major and Minor  2016-02-15    0.3    0.75
 6      1       6 Impractical Applications   2016-02-22    0.3    0.65
 7      1       7 The Mayakovsky Circumstan… 2016-02-29    0.3    0.7 
 8      1       8 The Strangled Heart        2016-03-07    0.3    0.67
 9      1       9 The Writing Room           2016-03-14    0.3    0.71
10      1      10 Homecoming                 2016-03-21    0.3    0.78
# … with 55 more rows
…
Table
65 rows x 6 columns
$season <int32>
$episode <int32>
$title <string>
$air_date <date32[day]>
$rating <double>
$viewers <double>

The magicians data set is a “data frame” (a tibble, technically) stored in R. The arrowmagicks data set, however, is a pointer to a data structure stored in Arrow. That data structure is a “Table” object. Arrow Tables are roughly analogous to data frames – both represent tabular data with columns that may be of different types – but they are not the same. An act of translation has occurred. Similarly when we look at the individual columns we see that something similar has happened. “Integer” columns in R are mapped to “int32” columns in Arrow, “Date” columns in R become “date32” columns in Arrow, and so on. Even without knowing much about the data types in the two languages, you can infer a lot from the names! In this case you can reasonably (and correctly) infer that the translation from R to Arrow is a sensible one. Better yet, in this case, when we pull the arrowmagicks data back into R we recover the original data:

collect(arrowmagicks)

# A tibble: 65 × 6
   season episode title                      air_date   rating viewers
    <int>   <int> <chr>                      <date>      <dbl>   <dbl>
 1      1       1 Unauthorized Magic         2015-12-16    0.2    0.92
 2      1       2 The Source of Magic        2016-01-25    0.4    1.11
 3      1       3 Consequences of Advanced … 2016-02-01    0.4    0.9 
 4      1       4 The World in the Walls     2016-02-08    0.3    0.75
 5      1       5 Mendings, Major and Minor  2016-02-15    0.3    0.75
 6      1       6 Impractical Applications   2016-02-22    0.3    0.65
 7      1       7 The Mayakovsky Circumstan… 2016-02-29    0.3    0.7 
 8      1       8 The Strangled Heart        2016-03-07    0.3    0.67
 9      1       9 The Writing Room           2016-03-14    0.3    0.71
10      1      10 Homecoming                 2016-03-21    0.3    0.78
# … with 55 more rows
…
